{"frames": {

"bat.png":
{
	"frame": {"x":643,"y":1036,"w":291,"h":134},
	"rotated": false,
	"trimmed": true,
	"spriteSourceSize": {"x":4,"y":0,"w":291,"h":134},
	"sourceSize": {"w":295,"h":135}
},
"cactus1.png":
{
	"frame": {"x":1285,"y":371,"w":259,"h":640},
	"rotated": false,
	"trimmed": true,
	"spriteSourceSize": {"x":30,"y":0,"w":259,"h":640},
	"sourceSize": {"w":320,"h":640}
},
"cactus2.png":
{
	"frame": {"x":1,"y":886,"w":273,"h":640},
	"rotated": true,
	"trimmed": true,
	"spriteSourceSize": {"x":24,"y":0,"w":273,"h":640},
	"sourceSize": {"w":320,"h":640}
},
"cactus3.png":
{
	"frame": {"x":643,"y":371,"w":342,"h":640},
	"rotated": true,
	"trimmed": false,
	"spriteSourceSize": {"x":0,"y":0,"w":342,"h":640},
	"sourceSize": {"w":342,"h":640}
},
"cactus4.png":
{
	"frame": {"x":643,"y":715,"w":319,"h":640},
	"rotated": true,
	"trimmed": true,
	"spriteSourceSize": {"x":1,"y":0,"w":319,"h":640},
	"sourceSize": {"w":320,"h":640}
},
"clouds.png":
{
	"frame": {"x":1,"y":309,"w":1435,"h":60},
	"rotated": false,
	"trimmed": true,
	"spriteSourceSize": {"x":32,"y":14,"w":1435,"h":60},
	"sourceSize": {"w":1513,"h":100}
},
"dart.png":
{
	"frame": {"x":1438,"y":309,"w":57,"h":11},
	"rotated": false,
	"trimmed": false,
	"spriteSourceSize": {"x":0,"y":0,"w":57,"h":11},
	"sourceSize": {"w":57,"h":11}
},
"hedgehog.png":
{
	"frame": {"x":1,"y":371,"w":640,"h":513},
	"rotated": false,
	"trimmed": false,
	"spriteSourceSize": {"x":0,"y":0,"w":640,"h":513},
	"sourceSize": {"w":640,"h":513}
},
"hills.png":
{
	"frame": {"x":1,"y":1,"w":1513,"h":252},
	"rotated": false,
	"trimmed": false,
	"spriteSourceSize": {"x":0,"y":0,"w":1513,"h":252},
	"sourceSize": {"w":1513,"h":252}
},
"jump.png":
{
	"frame": {"x":1774,"y":833,"w":165,"h":226},
	"rotated": false,
	"trimmed": true,
	"spriteSourceSize": {"x":0,"y":1,"w":165,"h":226},
	"sourceSize": {"w":170,"h":230}
},
"road.png":
{
	"frame": {"x":1,"y":255,"w":1513,"h":52},
	"rotated": false,
	"trimmed": false,
	"spriteSourceSize": {"x":0,"y":0,"w":1513,"h":52},
	"sourceSize": {"w":1513,"h":52}
},
"shoot.png":
{
	"frame": {"x":1546,"y":834,"w":221,"h":226},
	"rotated": true,
	"trimmed": true,
	"spriteSourceSize": {"x":0,"y":2,"w":221,"h":226},
	"sourceSize": {"w":227,"h":230}
},
"shroom.png":
{
	"frame": {"x":1546,"y":330,"w":296,"h":272},
	"rotated": false,
	"trimmed": true,
	"spriteSourceSize": {"x":2,"y":4,"w":296,"h":272},
	"sourceSize": {"w":300,"h":280}
},
"spider.png":
{
	"frame": {"x":1516,"y":1,"w":473,"h":327},
	"rotated": false,
	"trimmed": true,
	"spriteSourceSize": {"x":0,"y":0,"w":473,"h":327},
	"sourceSize": {"w":473,"h":328}
},
"ultimate.png":
{
	"frame": {"x":1546,"y":604,"w":224,"h":228},
	"rotated": false,
	"trimmed": true,
	"spriteSourceSize": {"x":3,"y":0,"w":224,"h":228},
	"sourceSize": {"w":227,"h":230}
},
"walk1.png":
{
	"frame": {"x":1772,"y":604,"w":167,"h":227},
	"rotated": false,
	"trimmed": true,
	"spriteSourceSize": {"x":0,"y":0,"w":167,"h":227},
	"sourceSize": {"w":170,"h":230}
},
"walk2.png":
{
	"frame": {"x":1844,"y":330,"w":164,"h":229},
	"rotated": false,
	"trimmed": true,
	"spriteSourceSize": {"x":0,"y":0,"w":164,"h":229},
	"sourceSize": {"w":170,"h":230}
}},
"animations": {
	"cactus": ["cactus1.png","cactus2.png","cactus3.png","cactus4.png"],
	"walk": ["walk1.png","walk2.png"]
},
"meta": {
	"app": "https://www.codeandweb.com/texturepacker",
	"version": "1.0",
	"image": "sprites.png",
	"format": "RGBA8888",
	"size": {"w":2009,"h":1171},
	"scale": "1",
	"smartupdate": "$TexturePacker:SmartUpdate:5a49322b98c9db45a6a604794c878aae:6bba202a51a4559151d59a50b22c5da1:1eabdf11f75e3a4fe3147baf7b5be24b$"
}
}
